arrow==0.13.0
asn1crypto==0.24.0
b2==1.4.0
b2sdk==0.1.6
bcrypt==3.1.4
beautifulsoup4==4.7.1
blinker==1.4
certifi==2018.11.29
cffi==1.11.5
chardet==3.0.4
cryptography==2.3.1
docutils==0.14
fabric==2.4.0
feedgenerator==1.9
funcsigs==1.0.2
idna==2.7
invoke==1.2.0
Jinja2==2.10
logfury==0.1.2
Markdown==2.6.11
MarkupSafe==1.0
paramiko==2.4.1
pelican==3.7.1
pelican-gist==0.3.4
Pillow==5.4.1
pyasn1==0.4.4
pycparser==2.18
Pygments==2.2.0
PyNaCl==1.2.1
python-dateutil==2.7.3
pytz==2018.5
requests==2.21.0
six==1.11.0
soupsieve==1.7.2
tqdm==4.32.1
Unidecode==1.0.22
urllib3==1.24.1
